ECE552-Intro Comp Arch/HW1/submission/ignore/hw1/hw1/hw1_1/dump.vcd
$date
	Sun Sep 19 18:48:55 2021
$end
$version
	ModelSim Version 10.7c
$end
$timescale
	1ns
$end

$scope module quaddemux1_4_bench $end
$var reg 4 ! Inp [3:0] $end
$var reg 2 " S [1:0] $end
$var wire 1 # OutA [3] $end
$var wire 1 $ OutA [2] $end
$var wire 1 % OutA [1] $end
$var wire 1 & OutA [0] $end
$var wire 1 ' OutB [3] $end
$var wire 1 ( OutB [2] $end
$var wire 1 ) OutB [1] $end
$var wire 1 * OutB [0] $end
$var wire 1 + OutC [3] $end
$var wire 1 , OutC [2] $end
$var wire 1 - OutC [1] $end
$var wire 1 . OutC [0] $end
$var wire 1 / OutD [3] $end
$var wire 1 0 OutD [2] $end
$var wire 1 1 OutD [1] $end
$var wire 1 2 OutD [0] $end
$var wire 1 3 Clk $end
$var wire 1 4 Rst $end
$var wire 1 5 Err $end

$scope module my_clkrst $end
$var reg 1 6 clk $end
$var reg 1 7 rst $end
$var wire 1 5 err $end
$var integer 32 8 cycle_count $end
$upscope $end

$scope module DUT $end
$var wire 1 9 Inp [3] $end
$var wire 1 : Inp [2] $end
$var wire 1 ; Inp [1] $end
$var wire 1 < Inp [0] $end
$var wire 1 = S [1] $end
$var wire 1 > S [0] $end
$var wire 1 # OutA [3] $end
$var wire 1 $ OutA [2] $end
$var wire 1 % OutA [1] $end
$var wire 1 & OutA [0] $end
$var wire 1 ' OutB [3] $end
$var wire 1 ( OutB [2] $end
$var wire 1 ) OutB [1] $end
$var wire 1 * OutB [0] $end
$var wire 1 + OutC [3] $end
$var wire 1 , OutC [2] $end
$var wire 1 - OutC [1] $end
$var wire 1 . OutC [0] $end
$var wire 1 / OutD [3] $end
$var wire 1 0 OutD [2] $end
$var wire 1 1 OutD [1] $end
$var wire 1 2 OutD [0] $end

$scope module iDEMUX1_4[3] $end
$var wire 1 9 Inp $end
$var wire 1 = S [1] $end
$var wire 1 > S [0] $end
$var wire 1 # OutA $end
$var wire 1 ' OutB $end
$var wire 1 + OutC $end
$var wire 1 / OutD $end
$var wire 1 ? abInp $end
$var wire 1 @ cdInp $end

$scope module iDEMUX1_2_3 $end
$var wire 1 9 Inp $end
$var wire 1 = S $end
$var wire 1 ? OutA $end
$var wire 1 @ OutB $end
$var wire 1 A notS $end
$var wire 1 B nand1out $end
$var wire 1 C nand2out $end

$scope module iNOT1 $end
$var wire 1 = in1 $end
$var wire 1 A out $end
$upscope $end

$scope module iNAND1 $end
$var wire 1 9 in1 $end
$var wire 1 A in2 $end
$var wire 1 B out $end
$upscope $end

$scope module iNAND2 $end
$var wire 1 9 in1 $end
$var wire 1 = in2 $end
$var wire 1 C out $end
$upscope $end

$scope module iNOT2 $end
$var wire 1 B in1 $end
$var wire 1 ? out $end
$upscope $end

$scope module iNOT3 $end
$var wire 1 C in1 $end
$var wire 1 @ out $end
$upscope $end
$upscope $end

$scope module iDEMUX1_2_1 $end
$var wire 1 ? Inp $end
$var wire 1 > S $end
$var wire 1 # OutA $end
$var wire 1 ' OutB $end
$var wire 1 D notS $end
$var wire 1 E nand1out $end
$var wire 1 F nand2out $end

$scope module iNOT1 $end
$var wire 1 > in1 $end
$var wire 1 D out $end
$upscope $end

$scope module iNAND1 $end
$var wire 1 ? in1 $end
$var wire 1 D in2 $end
$var wire 1 E out $end
$upscope $end

$scope module iNAND2 $end
$var wire 1 ? in1 $end
$var wire 1 > in2 $end
$var wire 1 F out $end
$upscope $end

$scope module iNOT2 $end
$var wire 1 E in1 $end
$var wire 1 # out $end
$upscope $end

$scope module iNOT3 $end
$var wire 1 F in1 $end
$var wire 1 ' out $end
$upscope $end
$upscope $end

$scope module iDEMUX1_2_2 $end
$var wire 1 @ Inp $end
$var wire 1 > S $end
$var wire 1 + OutA $end
$var wire 1 / OutB $end
$var wire 1 G notS $end
$var wire 1 H nand1out $end
$var wire 1 I nand2out $end

$scope module iNOT1 $end
$var wire 1 > in1 $end
$var wire 1 G out $end
$upscope $end

$scope module iNAND1 $end
$var wire 1 @ in1 $end
$var wire 1 G in2 $end
$var wire 1 H out $end
$upscope $end

$scope module iNAND2 $end
$var wire 1 @ in1 $end
$var wire 1 > in2 $end
$var wire 1 I out $end
$upscope $end

$scope module iNOT2 $end
$var wire 1 H in1 $end
$var wire 1 + out $end
$upscope $end

$scope module iNOT3 $end
$var wire 1 I in1 $end
$var wire 1 / out $end
$upscope $end
$upscope $end
$upscope $end

$scope module iDEMUX1_4[2] $end
$var wire 1 : Inp $end
$var wire 1 = S [1] $end
$var wire 1 > S [0] $end
$var wire 1 $ OutA $end
$var wire 1 ( OutB $end
$var wire 1 , OutC $end
$var wire 1 0 OutD $end
$var wire 1 J abInp $end
$var wire 1 K cdInp $end

$scope module iDEMUX1_2_3 $end
$var wire 1 : Inp $end
$var wire 1 = S $end
$var wire 1 J OutA $end
$var wire 1 K OutB $end
$var wire 1 L notS $end
$var wire 1 M nand1out $end
$var wire 1 N nand2out $end

$scope module iNOT1 $end
$var wire 1 = in1 $end
$var wire 1 L out $end
$upscope $end

$scope module iNAND1 $end
$var wire 1 : in1 $end
$var wire 1 L in2 $end
$var wire 1 M out $end
$upscope $end

$scope module iNAND2 $end
$var wire 1 : in1 $end
$var wire 1 = in2 $end
$var wire 1 N out $end
$upscope $end

$scope module iNOT2 $end
$var wire 1 M in1 $end
$var wire 1 J out $end
$upscope $end

$scope module iNOT3 $end
$var wire 1 N in1 $end
$var wire 1 K out $end
$upscope $end
$upscope $end

$scope module iDEMUX1_2_1 $end
$var wire 1 J Inp $end
$var wire 1 > S $end
$var wire 1 $ OutA $end
$var wire 1 ( OutB $end
$var wire 1 O notS $end
$var wire 1 P nand1out $end
$var wire 1 Q nand2out $end

$scope module iNOT1 $end
$var wire 1 > in1 $end
$var wire 1 O out $end
$upscope $end

$scope module iNAND1 $end
$var wire 1 J in1 $end
$var wire 1 O in2 $end
$var wire 1 P out $end
$upscope $end

$scope module iNAND2 $end
$var wire 1 J in1 $end
$var wire 1 > in2 $end
$var wire 1 Q out $end
$upscope $end

$scope module iNOT2 $end
$var wire 1 P in1 $end
$var wire 1 $ out $end
$upscope $end

$scope module iNOT3 $end
$var wire 1 Q in1 $end
$var wire 1 ( out $end
$upscope $end
$upscope $end

$scope module iDEMUX1_2_2 $end
$var wire 1 K Inp $end
$var wire 1 > S $end
$var wire 1 , OutA $end
$var wire 1 0 OutB $end
$var wire 1 R notS $end
$var wire 1 S nand1out $end
$var wire 1 T nand2out $end

$scope module iNOT1 $end
$var wire 1 > in1 $end
$var wire 1 R out $end
$upscope $end

$scope module iNAND1 $end
$var wire 1 K in1 $end
$var wire 1 R in2 $end
$var wire 1 S out $end
$upscope $end

$scope module iNAND2 $end
$var wire 1 K in1 $end
$var wire 1 > in2 $end
$var wire 1 T out $end
$upscope $end

$scope module iNOT2 $end
$var wire 1 S in1 $end
$var wire 1 , out $end
$upscope $end

$scope module iNOT3 $end
$var wire 1 T in1 $end
$var wire 1 0 out $end
$upscope $end
$upscope $end
$upscope $end

$scope module iDEMUX1_4[1] $end
$var wire 1 ; Inp $end
$var wire 1 = S [1] $end
$var wire 1 > S [0] $end
$var wire 1 % OutA $end
$var wire 1 ) OutB $end
$var wire 1 - OutC $end
$var wire 1 1 OutD $end
$var wire 1 U abInp $end
$var wire 1 V cdInp $end

$scope module iDEMUX1_2_3 $end
$var wire 1 ; Inp $end
$var wire 1 = S $end
$var wire 1 U OutA $end
$var wire 1 V OutB $end
$var wire 1 W notS $end
$var wire 1 X nand1out $end
$var wire 1 Y nand2out $end

$scope module iNOT1 $end
$var wire 1 = in1 $end
$var wire 1 W out $end
$upscope $end

$scope module iNAND1 $end
$var wire 1 ; in1 $end
$var wire 1 W in2 $end
$var wire 1 X out $end
$upscope $end

$scope module iNAND2 $end
$var wire 1 ; in1 $end
$var wire 1 = in2 $end
$var wire 1 Y out $end
$upscope $end

$scope module iNOT2 $end
$var wire 1 X in1 $end
$var wire 1 U out $end
$upscope $end

$scope module iNOT3 $end
$var wire 1 Y in1 $end
$var wire 1 V out $end
$upscope $end
$upscope $end

$scope module iDEMUX1_2_1 $end
$var wire 1 U Inp $end
$var wire 1 > S $end
$var wire 1 % OutA $end
$var wire 1 ) OutB $end
$var wire 1 Z notS $end
$var wire 1 [ nand1out $end
$var wire 1 \ nand2out $end

$scope module iNOT1 $end
$var wire 1 > in1 $end
$var wire 1 Z out $end
$upscope $end

$scope module iNAND1 $end
$var wire 1 U in1 $end
$var wire 1 Z in2 $end
$var wire 1 [ out $end
$upscope $end

$scope module iNAND2 $end
$var wire 1 U in1 $end
$var wire 1 > in2 $end
$var wire 1 \ out $end
$upscope $end

$scope module iNOT2 $end
$var wire 1 [ in1 $end
$var wire 1 % out $end
$upscope $end

$scope module iNOT3 $end
$var wire 1 \ in1 $end
$var wire 1 ) out $end
$upscope $end
$upscope $end

$scope module iDEMUX1_2_2 $end
$var wire 1 V Inp $end
$var wire 1 > S $end
$var wire 1 - OutA $end
$var wire 1 1 OutB $end
$var wire 1 ] notS $end
$var wire 1 ^ nand1out $end
$var wire 1 _ nand2out $end

$scope module iNOT1 $end
$var wire 1 > in1 $end
$var wire 1 ] out $end
$upscope $end

$scope module iNAND1 $end
$var wire 1 V in1 $end
$var wire 1 ] in2 $end
$var wire 1 ^ out $end
$upscope $end

$scope module iNAND2 $end
$var wire 1 V in1 $end
$var wire 1 > in2 $end
$var wire 1 _ out $end
$upscope $end

$scope module iNOT2 $end
$var wire 1 ^ in1 $end
$var wire 1 - out $end
$upscope $end

$scope module iNOT3 $end
$var wire 1 _ in1 $end
$var wire 1 1 out $end
$upscope $end
$upscope $end
$upscope $end

$scope module iDEMUX1_4[0] $end
$var wire 1 < Inp $end
$var wire 1 = S [1] $end
$var wire 1 > S [0] $end
$var wire 1 & OutA $end
$var wire 1 * OutB $end
$var wire 1 . OutC $end
$var wire 1 2 OutD $end
$var wire 1 ` abInp $end
$var wire 1 a cdInp $end

$scope module iDEMUX1_2_3 $end
$var wire 1 < Inp $end
$var wire 1 = S $end
$var wire 1 ` OutA $end
$var wire 1 a OutB $end
$var wire 1 b notS $end
$var wire 1 c nand1out $end
$var wire 1 d nand2out $end

$scope module iNOT1 $end
$var wire 1 = in1 $end
$var wire 1 b out $end
$upscope $end

$scope module iNAND1 $end
$var wire 1 < in1 $end
$var wire 1 b in2 $end
$var wire 1 c out $end
$upscope $end

$scope module iNAND2 $end
$var wire 1 < in1 $end
$var wire 1 = in2 $end
$var wire 1 d out $end
$upscope $end

$scope module iNOT2 $end
$var wire 1 c in1 $end
$var wire 1 ` out $end
$upscope $end

$scope module iNOT3 $end
$var wire 1 d in1 $end
$var wire 1 a out $end
$upscope $end
$upscope $end

$scope module iDEMUX1_2_1 $end
$var wire 1 ` Inp $end
$var wire 1 > S $end
$var wire 1 & OutA $end
$var wire 1 * OutB $end
$var wire 1 e notS $end
$var wire 1 f nand1out $end
$var wire 1 g nand2out $end

$scope module iNOT1 $end
$var wire 1 > in1 $end
$var wire 1 e out $end
$upscope $end

$scope module iNAND1 $end
$var wire 1 ` in1 $end
$var wire 1 e in2 $end
$var wire 1 f out $end
$upscope $end

$scope module iNAND2 $end
$var wire 1 ` in1 $end
$var wire 1 > in2 $end
$var wire 1 g out $end
$upscope $end

$scope module iNOT2 $end
$var wire 1 f in1 $end
$var wire 1 & out $end
$upscope $end

$scope module iNOT3 $end
$var wire 1 g in1 $end
$var wire 1 * out $end
$upscope $end
$upscope $end

$scope module iDEMUX1_2_2 $end
$var wire 1 a Inp $end
$var wire 1 > S $end
$var wire 1 . OutA $end
$var wire 1 2 OutB $end
$var wire 1 h notS $end
$var wire 1 i nand1out $end
$var wire 1 j nand2out $end

$scope module iNOT1 $end
$var wire 1 > in1 $end
$var wire 1 h out $end
$upscope $end

$scope module iNAND1 $end
$var wire 1 a in1 $end
$var wire 1 h in2 $end
$var wire 1 i out $end
$upscope $end

$scope module iNAND2 $end
$var wire 1 a in1 $end
$var wire 1 > in2 $end
$var wire 1 j out $end
$upscope $end

$scope module iNOT2 $end
$var wire 1 i in1 $end
$var wire 1 . out $end
$upscope $end

$scope module iNOT3 $end
$var wire 1 j in1 $end
$var wire 1 2 out $end
$upscope $end
$upscope $end
$upscope $end
$upscope $end
$upscope $end
$enddefinitions $end
#0
$dumpvars
b100 !
b1 "
16
17
b1 8
0&
0%
0$
0#
0*
0)
1(
0'
0.
0-
0,
0+
02
01
00
0/
13
14
z5
0`
0a
1b
1c
1d
0e
1f
1g
0h
1i
1j
0U
0V
1W
1X
1Y
0Z
1[
1\
0]
1^
1_
1J
0K
1L
0M
1N
0O
1P
0Q
0R
1S
1T
0?
0@
1A
1B
1C
0D
1E
1F
0G
1H
1I
1>
0=
0<
0;
1:
09
$end
#50
06
03
#100
16
13
b1001 !
b11 "
b10 8
1=
1<
0:
19
0B
0C
1M
0c
0d
0b
0W
0L
0A
1B
1c
1a
0J
1@
0I
1Q
0j
12
0(
1/
#150
06
03
#200
16
13
b1101 !
b1 "
b11 8
0=
1:
1b
1d
1W
1L
1A
1C
0@
0B
0M
0a
0c
1`
1j
1J
1?
1I
0/
0F
0Q
02
0g
1*
1(
1'
#201
07
04
#250
06
03
#300
16
13
b101 !
b10 "
b100 8
0>
1=
09
1B
0b
0d
0W
0L
0N
0A
1e
1g
1h
1Z
1]
1O
1Q
1R
1D
1F
1G
0'
0E
0(
0P
0*
0f
1K
1M
1a
1c
0?
1E
0`
0i
0J
0S
1&
1$
1,
1P
1.
1f
0&
0$
#350
06
03
#400
16
13
b1 !
b1 "
b101 8
1>
0=
0:
1b
1d
1W
1L
1N
1A
0e
0h
0j
0Z
0]
0O
0R
0T
0D
0G
10
1S
12
1i
0K
0a
0c
1`
1j
1T
0.
0,
00
02
0g
1*
#450
06
03
#500
16
13
b110 !
b110 8
0<
1;
1:
0M
0X
1c
0`
1U
1J
0Q
0\
1g
0*
1)
1(
#550
06
03
#600
16
13
b1101 !
b0 "
b111 8
0>
1<
0;
19
0B
1X
0c
1e
1h
1Z
1\
1]
1O
1Q
1R
1D
1G
0(
0P
0)
0[
1`
0U
1?
0E
1[
0f
1$
1&
1#
#650
06
03
#700
16
13
b1001 !
b10 "
b1000 8
1=
0:
1M
0b
0d
0W
0L
0A
0C
1@
1B
1a
1c
0J
1P
0`
0i
0?
0H
1+
1E
1.
1f
0$
0&
0#
#750
06
03
#800
16
13
b101 !
b1001 8
1:
09
1C
0N
1K
0@
1H
0S
1,
0+
#850
06
03
#900
16
13
b11 "
b1010 8
1>
0e
0h
0j
0Z
0]
0O
0R
0T
0D
0G
10
1S
12
1i
0.
0,
#950
06
03
#1000
16
13
b10 !
b1011 8
0<
1;
0:
1N
0Y
1d
0a
1V
0K
1T
0_
1j
02
11
00
#1050
06
03
#1100
16
13
b10 "
b1100 8
0>
1e
1h
1Z
1]
1_
1O
1R
1D
1G
01
0^
1-
#1150
06
03
#1200
16
13
b1000 !
b1 "
b1101 8
1>
0=
0;
19
1b
1W
1Y
1L
1A
0e
0h
0Z
0]
0_
0O
0R
0D
0G
11
1^
0B
0V
1_
1?
0-
0F
01
1'
#1250
06
03
#1300
16
13
b1100 !
b1110 8
1:
0M
1J
0Q
1(
#1350
06
03
#1400
16
13
b1101 !
b1111 8
1<
0c
1`
0g
1*
#1450
06
03
#1500
16
13
b11 !
b10 "
b10000 8
0>
1=
1;
0:
09
1B
1M
0X
0Y
0b
0d
0W
0L
0A
1e
1g
1h
1Z
1]
1O
1Q
1R
1D
1F
1G
0'
0E
0(
0P
0*
0f
1X
1a
1c
1V
0J
0?
1E
1P
0^
0`
0i
1&
1.
1f
1-
0&
#1550
06
03
#1600
16
13
b0 !
b0 "
b10001 8
0=
0<
0;
1b
1d
1W
1Y
1L
1A
0V
0a
1i
1^
0-
0.
#1650
06
03
#1700
16
13
b1010 !
b1 "
b10010 8
1>
1;
19
0B
0X
0e
0h
0Z
0]
0O
0R
0D
0G
1U
1?
0F
0\
1)
1'
#1750
06
03
#1800
16
13
b110 !
b11 "
b10011 8
1=
1:
09
1B
0M
0N
0b
0W
0Y
0L
0A
1M
1V
1X
1K
0?
1F
0T
0U
0_
11
1\
10
0'
0)
#1850
06
03
#1900
16
13
b1101 !
b10100 8
1<
0;
19
0C
1Y
0d
1a
0V
1@
0I
1_
0j
12
01
1/
#1950
06
03
#2000
16
13
b1011 !
b1 "
b10101 8
0=
1;
0:
1b
1d
1W
1L
1N
1A
1C
0@
0B
0K
0X
0a
0c
1`
1j
1U
1T
1?
1I
0/
0F
00
0\
02
0g
1*
1)
1'
#2050
06
03
#2100
16
13
b10 !
b10 "
b10110 8
0>
1=
0<
09
1B
1c
0b
0W
0Y
0L
0A
1e
1g
1h
1Z
1\
1]
1O
1R
1D
1F
1G
0'
0E
0)
0[
0*
0f
1V
1X
0`
0?
1E
1f
0U
0^
1%
1-
1[
0%
#2150
06
03
#2200
16
13
b1101 !
b11 "
b10111 8
1>
1<
0;
1:
19
0C
0N
1Y
0d
0e
0h
0Z
0]
0_
0O
0R
0D
0G
11
1^
1a
0V
1K
1@
0I
0T
1_
0j
0-
12
01
10
1/
#2250
06
03
#2300
16
13
b11 !
b10 "
b11000 8
0>
1;
0:
09
1C
1N
0Y
1e
1h
1j
1Z
1]
1O
1R
1T
1D
1G
1I
0/
0H
00
0S
02
0i
1V
0K
0@
1H
1S
0^
1.
1-
#2350
06
03
#2400
16
13
b1010 !
b0 "
b11001 8
0=
0<
19
1b
1d
1W
1Y
1L
1A
0B
0V
0X
0a
1i
1U
1^
1?
0E
0-
0[
0.
1%
1#
#2450
06
03
#2500
16
13
b10 !
b10 "
b11010 8
1=
09
1B
0b
0W
0Y
0L
0A
1V
1X
0?
1E
0U
0^
1-
1[
0#
0%
#2550
06
03
#2600
16
13
b1 !
b0 "
b11011 8
0=
1<
0;
1b
1W
1Y
1L
1A
0V
0c
1`
1^
0-
0f
1&
#2650
06
03
#2700
16
13
b1000 !
b1 "
b11100 8
1>
0<
19
0B
1c
0e
0g
0h
0Z
0]
0O
0R
0D
0G
1*
1f
0`
1?
0F
1g
0&
0*
1'
#2750
06
03
#2800
16
13
b1011 !
b10 "
b11101 8
0>
1=
1<
1;
0X
0Y
0c
0d
0b
0W
0L
0A
0C
1e
1h
1Z
1]
1O
1R
1D
1F
1G
0'
0E
1@
1B
1X
1c
1a
1V
0^
0i
0?
0H
1#
1+
1E
1.
1-
0#
#2850
06
03
#2900
16
13
b110 !
b11110 8
0<
1:
09
1C
0N
1d
0a
1K
0@
1H
0S
1i
0.
1,
0+
#2950
06
03
#3000
16
13
b1100 !
b11111 8
0;
19
0C
1Y
0V
1@
0H
1^
0-
1+
#3050
06
03
#3100
16
13
b1011 !
b1 "
b100000 8
1>
0=
1<
1;
0:
1b
1W
1L
1N
1A
1C
0e
0h
0Z
0]
0O
0R
0T
0D
0G
0I
1/
1H
10
1S
0@
0B
0K
0X
0c
1`
1U
1T
1?
1I
0,
0+
0/
0F
00
0\
0g
1*
1)
1'
#3150
06
03
#3200
16
13
b101 !
b11 "
b100001 8
1=
0;
1:
09
1B
0M
0N
1X
0b
0d
0W
0L
0A
1M
1a
1c
0U
1K
0?
1F
0T
1\
0`
0j
12
1g
0)
10
0'
0*
#3250
06
03
#3300
16
13
b1011 !
b10 "
b100010 8
0>
1;
0:
19
0C
1N
0Y
1e
1h
1j
1Z
1]
1O
1R
1T
1D
1G
00
0S
02
0i
1V
0K
1@
0H
1S
0^
1.
1-
1+
#3350
06
03
#3400
16
13
b1110 !
b1 "
b100011 8
1>
0=
0<
1:
1b
1d
1W
1Y
1L
1A
1C
0e
0h
0j
0Z
0]
0_
0O
0R
0D
0G
0I
1/
1H
11
1^
12
1i
0@
0B
0M
0V
0X
0a
1j
1U
1_
1J
1?
1I
0.
0-
0+
0/
0F
0Q
01
0\
02
1)
1(
1'
#3450
06
03
#3500
16
13
b1 !
b100100 8
1<
0;
0:
09
1B
1M
1X
0c
1`
0U
0J
0?
1F
1Q
1\
0g
1*
0)
0(
0'
#3550
06
03
#3600
16
13
b10 !
b0 "
b100101 8
0>
0<
1;
0X
1c
1e
1g
1h
1Z
1]
1O
1R
1D
1G
0*
0f
0`
1U
0[
1f
1%
#3650
06
03
#3700
16
13
b1111 !
b11 "
b100110 8
1>
1=
1<
1:
19
0B
0C
0M
0N
0c
0d
0b
0W
0Y
0L
0A
0e
0h
0Z
0\
0]
0O
0R
0D
0G
1)
1[
1B
1M
1V
1X
1c
1a
1K
1@
0I
0T
0j
0U
0_
0%
11
1\
12
10
1/
0)
#3750
06
03
#3800
16
13
b1000 !
b100111 8
0<
0;
0:
1N
1Y
1d
0a
0V
0K
1T
1_
1j
02
01
00
#3850
06
03
#3900
16
13
b1111 !
b0 "
b101000 8
0>
0=
1<
1;
1:
1b
1W
1L
1A
1C
1e
1h
1Z
1]
1O
1R
1D
1G
1I
0/
0H
0@
0B
0M
0X
0c
1`
1U
1J
1?
1H
0E
0P
0[
0f
1&
1%
1$
1#
