ECE552-Intro Comp Arch/HW1/submission/ignore/hw1/hw1/hw1_3/dump.vcd
$date
	Thu Sep 23 10:49:59 2021
$end
$version
	ModelSim Version 10.7c
$end
$timescale
	1ns
$end

$scope module seqdec_52_bench $end
$var reg 1 ! Inp $end
$var wire 1 " Clk $end
$var wire 1 # Reset $end
$var wire 1 $ Out $end
$var reg 128 % sequenc [127:0] $end
$var integer 32 & k $end
$var reg 8 ' seq [7:0] $end
$var reg 8 ( seqp1 [7:0] $end
$var wire 1 ) err $end

$scope module DUT $end
$var wire 1 * Inp $end
$var wire 1 " Clk $end
$var wire 1 # Reset $end
$var wire 1 $ Out $end
$var wire 1 + reg1 $end
$var wire 1 , reg2 $end
$var wire 1 - reg3 $end
$var wire 1 . reg4 $end
$var wire 1 / reg5 $end
$var wire 1 0 reg6 $end
$var wire 1 1 reg7 $end
$var wire 1 2 reg8 $end
$var wire 1 3 and1 $end
$var wire 1 4 and2 $end
$var wire 1 5 and3 $end
$var wire 1 6 and4 $end
$var wire 1 7 and5 $end
$var wire 1 8 and6 $end
$var wire 1 9 and7 $end
$var wire 1 : and8 $end
$var wire 1 ; temp1 $end
$var wire 1 < temp2 $end
$var wire 1 = temp3 $end
$var wire 1 > temp4 $end
$var wire 1 ? temp5 $end
$var wire 1 @ temp6 $end
$var wire 1 A temp7 $end
$var wire 1 B temp8 $end
$var wire 1 C temp9 $end
$var wire 1 D temp10 $end
$var wire 1 E temp11 $end
$var wire 1 F temp12 $end
$var wire 1 G temp13 $end
$var wire 1 H temp14 $end

$scope module iDFF1 $end
$var wire 1 + q $end
$var wire 1 * d $end
$var wire 1 " clk $end
$var wire 1 # rst $end
$var reg 1 I state $end
$upscope $end

$scope module iDFF2 $end
$var wire 1 , q $end
$var wire 1 + d $end
$var wire 1 " clk $end
$var wire 1 # rst $end
$var reg 1 J state $end
$upscope $end

$scope module iDFF3 $end
$var wire 1 - q $end
$var wire 1 , d $end
$var wire 1 " clk $end
$var wire 1 # rst $end
$var reg 1 K state $end
$upscope $end

$scope module iDFF4 $end
$var wire 1 . q $end
$var wire 1 - d $end
$var wire 1 " clk $end
$var wire 1 # rst $end
$var reg 1 L state $end
$upscope $end

$scope module iDFF5 $end
$var wire 1 / q $end
$var wire 1 . d $end
$var wire 1 " clk $end
$var wire 1 # rst $end
$var reg 1 M state $end
$upscope $end

$scope module iDFF6 $end
$var wire 1 0 q $end
$var wire 1 / d $end
$var wire 1 " clk $end
$var wire 1 # rst $end
$var reg 1 N state $end
$upscope $end

$scope module iDFF7 $end
$var wire 1 1 q $end
$var wire 1 0 d $end
$var wire 1 " clk $end
$var wire 1 # rst $end
$var reg 1 O state $end
$upscope $end

$scope module iDFF8 $end
$var wire 1 2 q $end
$var wire 1 1 d $end
$var wire 1 " clk $end
$var wire 1 # rst $end
$var reg 1 P state $end
$upscope $end

$scope module iNOT1 $end
$var wire 1 + in1 $end
$var wire 1 3 out $end
$upscope $end

$scope module iNOT2 $end
$var wire 1 - in1 $end
$var wire 1 5 out $end
$upscope $end

$scope module iNOT3 $end
$var wire 1 . in1 $end
$var wire 1 6 out $end
$upscope $end

$scope module iNOT4 $end
$var wire 1 0 in1 $end
$var wire 1 8 out $end
$upscope $end

$scope module iNOT5 $end
$var wire 1 2 in1 $end
$var wire 1 : out $end
$upscope $end

$scope module iNAND2 $end
$var wire 1 3 in1 $end
$var wire 1 4 in2 $end
$var wire 1 ; out $end
$upscope $end

$scope module iNOT6 $end
$var wire 1 ; in1 $end
$var wire 1 < out $end
$upscope $end

$scope module iNAND3 $end
$var wire 1 5 in1 $end
$var wire 1 < in2 $end
$var wire 1 = out $end
$upscope $end

$scope module iNOT7 $end
$var wire 1 = in1 $end
$var wire 1 > out $end
$upscope $end

$scope module iNAND4 $end
$var wire 1 6 in1 $end
$var wire 1 > in2 $end
$var wire 1 ? out $end
$upscope $end

$scope module iNOT8 $end
$var wire 1 ? in1 $end
$var wire 1 @ out $end
$upscope $end

$scope module iNAND5 $end
$var wire 1 7 in1 $end
$var wire 1 @ in2 $end
$var wire 1 A out $end
$upscope $end

$scope module iNOT9 $end
$var wire 1 A in1 $end
$var wire 1 B out $end
$upscope $end

$scope module iNAND6 $end
$var wire 1 8 in1 $end
$var wire 1 B in2 $end
$var wire 1 C out $end
$upscope $end

$scope module iNOT10 $end
$var wire 1 C in1 $end
$var wire 1 D out $end
$upscope $end

$scope module iNAND7 $end
$var wire 1 9 in1 $end
$var wire 1 D in2 $end
$var wire 1 E out $end
$upscope $end

$scope module iNOT11 $end
$var wire 1 E in1 $end
$var wire 1 F out $end
$upscope $end

$scope module iNAND8 $end
$var wire 1 : in1 $end
$var wire 1 F in2 $end
$var wire 1 G out $end
$upscope $end

$scope module iNOT12 $end
$var wire 1 G in1 $end
$var wire 1 H out $end
$upscope $end
$upscope $end

$scope module my_ckrst $end
$var reg 1 Q clk $end
$var reg 1 R rst $end
$var wire 1 ) err $end
$var integer 32 S cycle_count $end
$upscope $end
$upscope $end
$enddefinitions $end
#0
$dumpvars
0!
b1001101010001101010010111101010100010110010111100100110100010101111000001001101010010100101001001101111000001010101011 %
b0 '
b0 (
0I
0J
0K
0L
0M
0N
0O
0P
1Q
1R
b0 &
b1 S
1"
1#
x$
0)
x+
x,
x-
x.
x/
x0
x1
x2
x3
x4
x5
x6
x7
x8
x9
x:
x;
x<
x=
x>
x?
x@
xA
xB
xC
xD
xE
xF
xG
xH
0*
$end
#1
02
01
00
0/
0.
0-
0,
0+
13
04
15
16
07
18
09
1:
1E
1A
1;
0<
0B
0F
1G
1C
1=
0>
0D
0H
0$
1?
0@
#50
0Q
0"
#100
1Q
1"
b10 S
#150
0Q
0"
#200
1Q
1"
b11 S
#201
0R
0#
#250
0Q
0"
#300
1Q
1"
b1 &
b100 S
#350
0Q
0"
#400
1Q
1"
b10 &
b101 S
#450
0Q
0"
#500
1Q
1"
b11 &
b110 S
#550
0Q
0"
#600
1Q
1"
b100 &
b111 S
#650
0Q
0"
#700
1Q
1"
b101 &
b1000 S
#750
0Q
0"
#800
1Q
1"
b110 &
b1001 S
#850
0Q
0"
#900
1Q
1"
b111 &
b1010 S
#950
0Q
0"
#1000
1Q
1"
b1000 &
b1011 S
#1050
0Q
0"
#1100
1Q
1"
b1001 &
b1100 S
#1150
0Q
0"
#1200
1Q
1"
b1010 &
b1101 S
#1250
0Q
0"
#1300
1Q
1"
1!
b1011 &
b1110 S
1*
b1 '
#1350
0Q
0"
#1400
1Q
1"
1I
0!
b1100 &
b1111 S
0*
b11 '
b10 '
b1 (
#1401
1+
03
#1450
0Q
0"
#1500
1Q
1"
0I
1J
b1101 &
b10000 S
b100 '
b10 (
#1501
1,
0+
13
14
0;
1<
0=
1>
0?
1@
#1550
0Q
0"
#1600
1Q
1"
0J
1K
1!
b1110 &
b10001 S
1*
b1000 '
b1001 '
b100 (
#1601
1-
0,
04
05
1=
1;
0<
0>
1?
0@
#1650
0Q
0"
#1700
1Q
1"
1I
0K
1L
b1111 &
b10010 S
b10011 '
b1001 (
#1701
1.
0-
1+
03
15
06
#1750
0Q
0"
#1800
1Q
1"
1J
0L
1M
0!
b10000 &
b10011 S
0*
b100111 '
b100110 '
b10011 (
#1801
1/
0.
1,
14
16
17
#1850
0Q
0"
#1900
1Q
1"
0I
1K
0M
1N
1!
b10001 &
b10100 S
1*
b1001100 '
b1001101 '
b100110 (
#1901
10
0/
1-
0+
13
05
07
08
0;
1<
#1950
0Q
0"
#2000
1Q
1"
1I
0J
1L
0N
1O
0!
b10010 &
b10101 S
0*
b10011011 '
b10011010 '
b1001101 (
#2001
11
00
1.
0,
1+
03
04
06
18
19
1;
0<
#2050
0Q
0"
#2100
1Q
1"
0I
1J
0K
1M
0O
1P
1!
b10011 &
b10110 S
1*
b110100 '
b110101 '
b10011010 (
#2101
12
01
1/
0-
1,
0+
13
14
15
17
09
0:
0;
1<
0=
1>
#2150
0Q
0"
#2200
1Q
1"
1I
0J
1K
0L
1N
0P
0!
b10100 &
b10111 S
0*
b1101011 '
b1101010 '
b110101 (
#2201
02
10
0.
1-
0,
1+
03
04
05
16
08
1:
0?
1=
1;
0<
0>
1@
0A
1?
0@
1B
1A
0B
#2250
0Q
0"
#2300
1Q
1"
0I
1J
0K
1L
0M
1O
b10101 &
b11000 S
b11010100 '
b1101010 (
#2301
11
0/
1.
0-
1,
0+
13
14
15
06
07
19
0;
1<
0=
1>
#2350
0Q
0"
#2400
1Q
1"
0J
1K
0L
1M
0N
1P
b10110 &
b11001 S
b10101000 '
b11010100 (
#2401
12
00
1/
0.
1-
0,
04
05
16
17
18
0:
0?
1=
1;
0<
0>
1@
0A
1?
0@
1B
0C
1A
0B
1D
0E
1C
0D
1F
1E
0F
#2450
0Q
0"
#2500
1Q
1"
0K
1L
0M
1N
0O
1!
b10111 &
b11010 S
1*
b1010000 '
b1010001 '
b10101000 (
#2501
01
10
0/
1.
0-
15
06
07
08
09
#2550
0Q
0"
#2600
1Q
1"
1I
0L
1M
0N
1O
0P
b11000 &
b11011 S
b10100011 '
b1010001 (
#2601
02
11
00
1/
0.
1+
03
16
17
18
19
1:
#2650
0Q
0"
#2700
1Q
1"
1J
0M
1N
0O
1P
0!
b11001 &
b11100 S
0*
b1000111 '
b1000110 '
b10100011 (
#2701
12
01
10
0/
1,
14
07
08
09
0:
#2750
0Q
0"
#2800
1Q
1"
0I
1K
0N
1O
0P
1!
b11010 &
b11101 S
1*
b10001100 '
b10001101 '
b1000110 (
#2801
02
11
00
1-
0+
13
05
18
19
1:
0;
1<
#2850
0Q
0"
#2900
1Q
1"
1I
0J
1L
0O
1P
0!
b11011 &
b11110 S
0*
b11011 '
b11010 '
b10001101 (
#2901
12
01
1.
0,
1+
03
04
06
09
0:
1;
0<
#2950
0Q
0"
#3000
1Q
1"
0I
1J
0K
1M
0P
1!
b11100 &
b11111 S
1*
b110100 '
b110101 '
b11010 (
#3001
02
1/
0-
1,
0+
13
14
15
17
1:
0;
1<
0=
1>
#3050
0Q
0"
#3100
1Q
1"
1I
0J
1K
0L
1N
0!
b11101 &
b100000 S
0*
b1101011 '
b1101010 '
b110101 (
#3101
10
0.
1-
0,
1+
03
04
05
16
08
0?
1=
1;
0<
0>
1@
0A
1?
0@
1B
1A
0B
#3150
0Q
0"
#3200
1Q
1"
0I
1J
0K
1L
0M
1O
b11110 &
b100001 S
b11010100 '
b1101010 (
#3201
11
0/
1.
0-
1,
0+
13
14
15
06
07
19
0;
1<
0=
1>
#3250
0Q
0"
#3300
1Q
1"
0J
1K
0L
1M
0N
1P
1!
b11111 &
b100010 S
1*
b10101000 '
b10101001 '
b11010100 (
#3301
12
00
1/
0.
1-
0,
04
05
16
17
18
0:
0?
1=
1;
0<
0>
1@
0A
1?
0@
1B
0C
1A
0B
1D
0E
1C
0D
1F
1E
0F
#3350
0Q
0"
#3400
1Q
1"
1I
0K
1L
0M
1N
0O
0!
b100000 &
b100011 S
0*
b1010011 '
b1010010 '
b10101001 (
#3401
01
10
0/
1.
0-
1+
03
15
06
07
08
09
#3450
0Q
0"
#3500
1Q
1"
0I
1J
0L
1M
0N
1O
0P
1!
b100001 &
b100100 S
1*
b10100100 '
b10100101 '
b1010010 (
#3501
02
11
00
1/
0.
1,
0+
13
14
16
17
18
19
1:
0;
1<
0=
1>
0?
1@
0A
1B
0C
1D
0E
1F
0G
1H
1$
#3550
0Q
0"
#3600
1Q
1"
1I
0J
1K
0M
1N
0O
1P
b100010 &
b100101 S
b1001011 '
b10100101 (
#3601
12
01
10
0/
1-
0,
1+
03
04
05
07
08
09
0:
1G
1E
1C
1A
1=
1;
0<
0>
0B
0D
0F
0H
0$
1?
0@
#3650
0Q
0"
#3700
1Q
1"
1J
0K
1L
0N
1O
0P
b100011 &
b100110 S
b10010111 '
b1001011 (
#3701
02
11
00
1.
0-
1,
14
15
06
18
19
1:
#3750
0Q
0"
#3800
1Q
1"
1K
0L
1M
0O
1P
b100100 &
b100111 S
b101111 '
b10010111 (
#3801
12
01
1/
0.
1-
05
16
17
09
0:
#3850
0Q
0"
#3900
1Q
1"
1L
0M
1N
0P
0!
b100101 &
b101000 S
0*
b1011111 '
b1011110 '
b101111 (
#3901
02
10
0/
1.
06
07
08
1:
#3950
0Q
0"
#4000
1Q
1"
0I
1M
0N
1O
1!
b100110 &
b101001 S
1*
b10111100 '
b10111101 '
b1011110 (
#4001
11
00
1/
0+
13
17
18
19
0;
1<
#4050
0Q
0"
#4100
1Q
1"
1I
0J
1N
0O
1P
0!
b100111 &
b101010 S
0*
b1111011 '
b1111010 '
b10111101 (
#4101
12
01
10
0,
1+
03
04
08
09
0:
1;
0<
#4150
0Q
0"
#4200
1Q
1"
0I
1J
0K
1O
0P
1!
b101000 &
b101011 S
1*
b11110100 '
b11110101 '
b1111010 (
#4201
02
11
0-
1,
0+
13
14
15
19
1:
0;
1<
0=
1>
#4250
0Q
0"
#4300
1Q
1"
1I
0J
1K
0L
1P
0!
b101001 &
b101100 S
0*
b11101011 '
b11101010 '
b11110101 (
#4301
12
0.
1-
0,
1+
03
04
05
16
0:
0?
1=
1;
0<
0>
1@
0A
1?
0@
1B
1A
0B
#4350
0Q
0"
#4400
1Q
1"
0I
1J
0K
1L
0M
1!
b101010 &
b101101 S
1*
b11010100 '
b11010101 '
b11101010 (
#4401
0/
1.
0-
1,
0+
13
14
15
06
07
0;
1<
0=
1>
#4450
0Q
0"
#4500
1Q
1"
1I
0J
1K
0L
1M
0N
0!
b101011 &
b101110 S
0*
b10101011 '
b10101010 '
b11010101 (
#4501
00
1/
0.
1-
0,
1+
03
04
05
16
17
18
0?
1=
1;
0<
0>
1@
0A
1?
0@
1B
0C
1A
0B
1D
0E
1C
0D
1F
1E
0F
#4550
0Q
0"
#4600
1Q
1"
0I
1J
0K
1L
0M
1N
0O
b101100 &
b101111 S
b1010100 '
b10101010 (
#4601
01
10
0/
1.
0-
1,
0+
13
14
15
06
07
08
09
0;
1<
0=
1>
#4650
0Q
0"
#4700
1Q
1"
0J
1K
0L
1M
0N
1O
0P
b101101 &
b110000 S
b10101000 '
b1010100 (
#4701
02
11
00
1/
0.
1-
0,
04
05
16
17
18
19
1:
0?
1=
1;
0<
0>
1@
0A
1?
0@
1B
0C
1A
0B
1D
0E
1C
0D
1F
0G
1E
0F
1H
1$
1G
0H
0$
#4750
0Q
0"
#4800
1Q
1"
0K
1L
0M
1N
0O
1P
1!
b101110 &
b110001 S
1*
b1010000 '
b1010001 '
b10101000 (
#4801
12
01
10
0/
1.
0-
15
06
07
08
09
0:
#4850
0Q
0"
#4900
1Q
1"
1I
0L
1M
0N
1O
0P
0!
b101111 &
b110010 S
0*
b10100011 '
b10100010 '
b1010001 (
#4901
02
11
00
1/
0.
1+
03
16
17
18
19
1:
#4950
0Q
0"
#5000
1Q
1"
0I
1J
0M
1N
0O
1P
1!
b110000 &
b110011 S
1*
b1000100 '
b1000101 '
b10100010 (
#5001
12
01
10
0/
1,
0+
13
14
07
08
09
0:
0;
1<
0=
1>
0?
1@
#5050
0Q
0"
#5100
1Q
1"
1I
0J
1K
0N
1O
0P
b110001 &
b110100 S
b10001011 '
b1000101 (
#5101
02
11
00
1-
0,
1+
03
04
05
18
19
1:
1=
1;
0<
0>
1?
0@
#5150
0Q
0"
#5200
1Q
1"
1J
0K
1L
0O
1P
0!
b110010 &
b110101 S
0*
b10111 '
b10110 '
b10001011 (
#5201
12
01
1.
0-
1,
14
15
06
09
0:
#5250
0Q
0"
#5300
1Q
1"
0I
1K
0L
1M
0P
b110011 &
b110110 S
b101100 '
b10110 (
#5301
02
1/
0.
1-
0+
13
05
16
17
1:
0;
1<
#5350
0Q
0"
#5400
1Q
1"
0J
1L
0M
1N
1!
b110100 &
b110111 S
1*
b1011000 '
b1011001 '
b101100 (
#5401
10
0/
1.
0,
04
06
07
08
1;
0<
#5450
0Q
0"
#5500
1Q
1"
1I
0K
1M
0N
1O
0!
b110101 &
b111000 S
0*
b10110011 '
b10110010 '
b1011001 (
#5501
11
00
1/
0-
1+
03
15
17
18
19
#5550
0Q
0"
#5600
1Q
1"
0I
1J
0L
1N
0O
1P
1!
b110110 &
b111001 S
1*
b1100100 '
b1100101 '
b10110010 (
#5601
12
01
10
0.
1,
0+
13
14
16
08
09
0:
0;
1<
0=
1>
0?
1@
0A
1B
#5650
0Q
0"
#5700
1Q
1"
1I
0J
1K
0M
1O
0P
b110111 &
b111010 S
b11001011 '
b1100101 (
#5701
02
11
0/
1-
0,
1+
03
04
05
07
19
1:
1A
1=
1;
0<
0>
0B
1?
0@
#5750
0Q
0"
#5800
1Q
1"
1J
0K
1L
0N
1P
b111000 &
b111011 S
b10010111 '
b11001011 (
#5801
12
00
1.
0-
1,
14
15
06
18
0:
#5850
0Q
0"
#5900
1Q
1"
1K
0L
1M
0O
b111001 &
b111100 S
b101111 '
b10010111 (
#5901
01
1/
0.
1-
05
16
17
09
#5950
0Q
0"
#6000
1Q
1"
1L
0M
1N
0P
0!
b111010 &
b111101 S
0*
b1011111 '
b1011110 '
b101111 (
#6001
02
10
0/
1.
06
07
08
1:
#6050
0Q
0"
#6100
1Q
1"
0I
1M
0N
1O
b111011 &
b111110 S
b10111100 '
b1011110 (
#6101
11
00
1/
0+
13
17
18
19
0;
1<
#6150
0Q
0"
#6200
1Q
1"
0J
1N
0O
1P
1!
b111100 &
b111111 S
1*
b1111000 '
b1111001 '
b10111100 (
#6201
12
01
10
0,
04
08
09
0:
1;
0<
#6250
0Q
0"
#6300
1Q
1"
1I
0K
1O
0P
0!
b111101 &
b1000000 S
0*
b11110011 '
b11110010 '
b1111001 (
#6301
02
11
0-
1+
03
15
19
1:
#6350
0Q
0"
#6400
1Q
1"
0I
1J
0L
1P
b111110 &
b1000001 S
b11100100 '
b11110010 (
#6401
12
0.
1,
0+
13
14
16
0:
0;
1<
0=
1>
0?
1@
0A
1B
#6450
0Q
0"
#6500
1Q
1"
0J
1K
0M
1!
b111111 &
b1000010 S
1*
b11001000 '
b11001001 '
b11100100 (
#6501
0/
1-
0,
04
05
07
1A
1=
1;
0<
0>
0B
1?
0@
#6550
0Q
0"
#6600
1Q
1"
1I
0K
1L
0N
b1000000 &
b1000011 S
b10010011 '
b11001001 (
#6601
00
1.
0-
1+
03
15
06
18
#6650
0Q
0"
#6700
1Q
1"
1J
0L
1M
0O
0!
b1000001 &
b1000100 S
0*
b100111 '
b100110 '
b10010011 (
#6701
01
1/
0.
1,
14
16
17
09
#6750
0Q
0"
#6800
1Q
1"
0I
1K
0M
1N
0P
1!
b1000010 &
b1000101 S
1*
b1001100 '
b1001101 '
b100110 (
#6801
02
10
0/
1-
0+
13
05
07
08
1:
0;
1<
#6850
0Q
0"
#6900
1Q
1"
1I
0J
1L
0N
1O
0!
b1000011 &
b1000110 S
0*
b10011011 '
b10011010 '
b1001101 (
#6901
11
00
1.
0,
1+
03
04
06
18
19
1;
0<
#6950
0Q
0"
#7000
1Q
1"
0I
1J
0K
1M
0O
1P
b1000100 &
b1000111 S
b110100 '
b10011010 (
#7001
12
01
1/
0-
1,
0+
13
14
15
17
09
0:
0;
1<
0=
1>
#7050
0Q
0"
#7100
1Q
1"
0J
1K
0L
1N
0P
b1000101 &
b1001000 S
b1101000 '
b110100 (
#7101
02
10
0.
1-
0,
04
05
16
08
1:
0?
1=
1;
0<
0>
1@
0A
1?
0@
1B
1A
0B
#7150
0Q
0"
#7200
1Q
1"
0K
1L
0M
1O
1!
b1000110 &
b1001001 S
1*
b11010000 '
b11010001 '
b1101000 (
#7201
11
0/
1.
0-
15
06
07
19
#7250
0Q
0"
#7300
1Q
1"
1I
0L
1M
0N
1P
0!
b1000111 &
b1001010 S
0*
b10100011 '
b10100010 '
b11010001 (
#7301
12
00
1/
0.
1+
03
16
17
18
0:
#7350
0Q
0"
#7400
1Q
1"
0I
1J
0M
1N
0O
1!
b1001000 &
b1001011 S
1*
b1000100 '
b1000101 '
b10100010 (
#7401
01
10
0/
1,
0+
13
14
07
08
09
0;
1<
0=
1>
0?
1@
#7450
0Q
0"
#7500
1Q
1"
1I
0J
1K
0N
1O
0P
0!
b1001001 &
b1001100 S
0*
b10001011 '
b10001010 '
b1000101 (
#7501
02
11
00
1-
0,
1+
03
04
05
18
19
1:
1=
1;
0<
0>
1?
0@
#7550
0Q
0"
#7600
1Q
1"
0I
1J
0K
1L
0O
1P
1!
b1001010 &
b1001101 S
1*
b10100 '
b10101 '
b10001010 (
#7601
12
01
1.
0-
1,
0+
13
14
15
06
09
0:
0;
1<
0=
1>
#7650
0Q
0"
#7700
1Q
1"
1I
0J
1K
0L
1M
0P
b1001011 &
b1001110 S
b101011 '
b10101 (
#7701
02
1/
0.
1-
0,
1+
03
04
05
16
17
1:
0?
1=
1;
0<
0>
1@
0A
1?
0@
1B
0C
1A
0B
1D
1C
0D
#7750
0Q
0"
#7800
1Q
1"
1J
0K
1L
0M
1N
b1001100 &
b1001111 S
b1010111 '
b101011 (
#7801
10
0/
1.
0-
1,
14
15
06
07
08
#7850
0Q
0"
#7900
1Q
1"
1K
0L
1M
0N
1O
b1001101 &
b1010000 S
b10101111 '
b1010111 (
#7901
11
00
1/
0.
1-
05
16
17
18
19
#7950
0Q
0"
#8000
1Q
1"
1L
0M
1N
0O
1P
0!
b1001110 &
b1010001 S
0*
b1011111 '
b1011110 '
b10101111 (
#8001
12
01
10
0/
1.
06
07
08
09
0:
#8050
0Q
0"
#8100
1Q
1"
0I
1M
0N
1O
0P
b1001111 &
b1010010 S
b10111100 '
b1011110 (
#8101
02
11
00
1/
0+
13
17
18
19
1:
0;
1<
#8150
0Q
0"
#8200
1Q
1"
0J
1N
0O
1P
b1010000 &
b1010011 S
b1111000 '
b10111100 (
#8201
12
01
10
0,
04
08
09
0:
1;
0<
#8250
0Q
0"
#8300
1Q
1"
0K
1O
0P
b1010001 &
b1010100 S
b11110000 '
b1111000 (
#8301
02
11
0-
15
19
1:
#8350
0Q
0"
#8400
1Q
1"
0L
1P
b1010010 &
b1010101 S
b11100000 '
b11110000 (
#8401
12
0.
16
0:
#8450
0Q
0"
#8500
1Q
1"
0M
1!
b1010011 &
b1010110 S
1*
b11000000 '
b11000001 '
b11100000 (
#8501
0/
07
#8550
0Q
0"
#8600
1Q
1"
1I
0N
0!
b1010100 &
b1010111 S
0*
b10000011 '
b10000010 '
b11000001 (
#8601
00
1+
03
18
#8650
0Q
0"
#8700
1Q
1"
0I
1J
0O
b1010101 &
b1011000 S
b100 '
b10000010 (
#8701
01
1,
0+
13
14
09
0;
1<
0=
1>
0?
1@
#8750
0Q
0"
#8800
1Q
1"
0J
1K
0P
1!
b1010110 &
b1011001 S
1*
b1000 '
b1001 '
b100 (
#8801
02
1-
0,
04
05
1:
1=
1;
0<
0>
1?
0@
#8850
0Q
0"
#8900
1Q
1"
1I
0K
1L
b1010111 &
b1011010 S
b10011 '
b1001 (
#8901
1.
0-
1+
03
15
06
#8950
0Q
0"
#9000
1Q
1"
1J
0L
1M
0!
b1011000 &
b1011011 S
0*
b100111 '
b100110 '
b10011 (
#9001
1/
0.
1,
14
16
17
#9050
0Q
0"
#9100
1Q
1"
0I
1K
0M
1N
1!
b1011001 &
b1011100 S
1*
b1001100 '
b1001101 '
b100110 (
#9101
10
0/
1-
0+
13
05
07
08
0;
1<
#9150
0Q
0"
#9200
1Q
1"
1I
0J
1L
0N
1O
0!
b1011010 &
b1011101 S
0*
b10011011 '
b10011010 '
b1001101 (
#9201
11
00
1.
0,
1+
03
04
06
18
19
1;
0<
#9250
0Q
0"
#9300
1Q
1"
0I
1J
0K
1M
0O
1P
1!
b1011011 &
b1011110 S
1*
b110100 '
b110101 '
b10011010 (
#9301
12
01
1/
0-
1,
0+
13
14
15
17
09
0:
0;
1<
0=
1>
#9350
0Q
0"
#9400
1Q
1"
1I
0J
1K
0L
1N
0P
0!
b1011100 &
b1011111 S
0*
b1101011 '
b1101010 '
b110101 (
#9401
02
10
0.
1-
0,
1+
03
04
05
16
08
1:
0?
1=
1;
0<
0>
1@
0A
1?
0@
1B
1A
0B
#9450
0Q
0"
#9500
1Q
1"
0I
1J
0K
1L
0M
1O
b1011101 &
b1100000 S
b11010100 '
b1101010 (
#9501
11
0/
1.
0-
1,
0+
13
14
15
06
07
19
0;
1<
0=
1>
#9550
0Q
0"
#9600
1Q
1"
0J
1K
0L
1M
0N
1P
1!
b1011110 &
b1100001 S
1*
b10101000 '
b10101001 '
b11010100 (
#9601
12
00
1/
0.
1-
0,
04
05
16
17
18
0:
0?
1=
1;
0<
0>
1@
0A
1?
0@
1B
0C
1A
0B
1D
0E
1C
0D
1F
1E
0F
#9650
0Q
0"
#9700
1Q
1"
1I
0K
1L
0M
1N
0O
0!
b1011111 &
b1100010 S
0*
b1010011 '
b1010010 '
b10101001 (
#9701
01
10
0/
1.
0-
1+
03
15
06
07
08
09
#9750
0Q
0"
#9800
1Q
1"
0I
1J
0L
1M
0N
1O
0P
1!
b1100000 &
b1100011 S
1*
b10100100 '
b10100101 '
b1010010 (
#9801
02
11
00
1/
0.
1,
0+
13
14
16
17
18
19
1:
0;
1<
0=
1>
0?
1@
0A
1B
0C
1D
0E
1F
0G
1H
1$
#9850
0Q
0"
#9900
1Q
1"
1I
0J
1K
0M
1N
0O
1P
0!
b1100001 &
b1100100 S
0*
b1001011 '
b1001010 '
b10100101 (
#9901
12
01
10
0/
1-
0,
1+
03
04
05
07
08
09
0:
1G
1E
1C
1A
1=
1;
0<
0>
0B
0D
0F
0H
0$
1?
0@
#9950
0Q
0"
#10000
1Q
1"
0I
1J
0K
1L
0N
1O
0P
b1100010 &
b1100101 S
b10010100 '
b1001010 (
#10001
02
11
00
1.
0-
1,
0+
13
14
15
06
18
19
1:
0;
1<
0=
1>
#10050
0Q
0"
#10100
1Q
1"
0J
1K
0L
1M
0O
1P
1!
b1100011 &
b1100110 S
1*
b101000 '
b101001 '
b10010100 (
#10101
12
01
1/
0.
1-
0,
04
05
16
17
09
0:
0?
1=
1;
0<
0>
1@
0A
1?
0@
1B
0C
1A
0B
1D
1C
0D
#10150
0Q
0"
#10200
1Q
1"
1I
0K
1L
0M
1N
0P
0!
b1100100 &
b1100111 S
0*
b1010011 '
b1010010 '
b101001 (
#10201
02
10
0/
1.
0-
1+
03
15
06
07
08
1:
#10250
0Q
0"
#10300
1Q
1"
0I
1J
0L
1M
0N
1O
1!
b1100101 &
b1101000 S
1*
b10100100 '
b10100101 '
b1010010 (
#10301
11
00
1/
0.
1,
0+
13
14
16
17
18
19
0;
1<
0=
1>
0?
1@
0A
1B
0C
1D
0E
1F
0G
1H
1$
#10350
0Q
0"
#10400
1Q
1"
1I
0J
1K
0M
1N
0O
1P
0!
b1100110 &
b1101001 S
0*
b1001011 '
b1001010 '
b10100101 (
#10401
12
01
10
0/
1-
0,
1+
03
04
05
07
08
09
0:
1G
1E
1C
1A
1=
1;
0<
0>
0B
0D
0F
0H
0$
1?
0@
#10450
0Q
0"
#10500
1Q
1"
0I
1J
0K
1L
0N
1O
0P
b1100111 &
b1101010 S
b10010100 '
b1001010 (
#10501
02
11
00
1.
0-
1,
0+
13
14
15
06
18
19
1:
0;
1<
0=
1>
#10550
0Q
0"
#10600
1Q
1"
0J
1K
0L
1M
0O
1P
1!
b1101000 &
b1101011 S
1*
b101000 '
b101001 '
b10010100 (
#10601
12
01
1/
0.
1-
0,
04
05
16
17
09
0:
0?
1=
1;
0<
0>
1@
0A
1?
0@
1B
0C
1A
0B
1D
1C
0D
#10650
0Q
0"
#10700
1Q
1"
1I
0K
1L
0M
1N
0P
0!
b1101001 &
b1101100 S
0*
b1010011 '
b1010010 '
b101001 (
#10701
02
10
0/
1.
0-
1+
03
15
06
07
08
1:
#10750
0Q
0"
#10800
1Q
1"
0I
1J
0L
1M
0N
1O
b1101010 &
b1101101 S
b10100100 '
b1010010 (
#10801
11
00
1/
0.
1,
0+
13
14
16
17
18
19
0;
1<
0=
1>
0?
1@
0A
1B
0C
1D
0E
1F
0G
1H
1$
#10850
0Q
0"
#10900
1Q
1"
0J
1K
0M
1N
0O
1P
1!
b1101011 &
b1101110 S
1*
b1001000 '
b1001001 '
b10100100 (
#10901
12
01
10
0/
1-
0,
04
05
07
08
09
0:
1G
1E
1C
1A
1=
1;
0<
0>
0B
0D
0F
0H
0$
1?
0@
#10950
0Q
0"
#11000
1Q
1"
1I
0K
1L
0N
1O
0P
b1101100 &
b1101111 S
b10010011 '
b1001001 (
#11001
02
11
00
1.
0-
1+
03
15
06
18
19
1:
#11050
0Q
0"
#11100
1Q
1"
1J
0L
1M
0O
1P
0!
b1101101 &
b1110000 S
0*
b100111 '
b100110 '
b10010011 (
#11101
12
01
1/
0.
1,
14
16
17
09
0:
#11150
0Q
0"
#11200
1Q
1"
0I
1K
0M
1N
0P
1!
b1101110 &
b1110001 S
1*
b1001100 '
b1001101 '
b100110 (
#11201
02
10
0/
1-
0+
13
05
07
08
1:
0;
1<
#11250
0Q
0"
#11300
1Q
1"
1I
0J
1L
0N
1O
b1101111 &
b1110010 S
b10011011 '
b1001101 (
#11301
11
00
1.
0,
1+
03
04
06
18
19
1;
0<
#11350
0Q
0"
#11400
1Q
1"
1J
0K
1M
0O
1P
b1110000 &
b1110011 S
b110111 '
b10011011 (
#11401
12
01
1/
0-
1,
14
15
17
09
0:
#11450
0Q
0"
#11500
1Q
1"
1K
0L
1N
0P
b1110001 &
b1110100 S
b1101111 '
b110111 (
#11501
02
10
0.
1-
05
16
08
1:
#11550
0Q
0"
#11600
1Q
1"
1L
0M
1O
0!
b1110010 &
b1110101 S
0*
b11011111 '
b11011110 '
b1101111 (
#11601
11
0/
1.
06
07
19
#11650
0Q
0"
